{
	"params" : 
		[
			{ "paramName" : "workEffortId", "paramType" : "LIST", "mandatory" : false, "display": false},			
			{ "paramName" : "customTimePeriod", "paramType" : "DATE", "mandatory" : true },
			{ "paramName" : "enumeration", "paramType" : "LIST", "mandatory" : false ,"options":"TIPTRATT", "label": "Tipologia trattamento"},
			{ "paramName" : "orgUnitId", "paramType" : "LIST", "mandatory" : false}
			
		],
	"services" : 	
		[
		]	
}
