
{
	"params" : 
		[		
			{ "paramName" : "workEffortId", "paramType" : "LIST", "mandatory" : false, "display": false},		
			{ "paramName" : "monitoringDate", "paramType" : "DATE", "mandatory" : true },
			{ "paramName" : "workEffortTypeIdParametric", "paramType" : "LIST", "mandatory" : false },
			{ "paramName" : "workEffortIdParametric", "paramType" : "MULTILIST", "mandatory" : false },
			{ "paramName" : "workEffortRevision","paramType" : "LIST", "mandatory" : false },
			{ "paramName" : "exposePaginator", "paramType" : "BOOLEAN", "mandatory" : false, "paramDefault" : true },
			{ "paramName" : "exposeReleaseDate", "paramType" : "BOOLEAN", "mandatory" : false, "paramDefault" : true }
		],
	"services" : 	
		[
			{ "serviceName" : "checkChildRootEqualityWithoutOrgUnit"},
			{ "serviceName" : "convertWorkEffortIdParametricToString"}
		]	
}
