{
	"params" : 
		[
			{ "paramName" : "workEffortId", "paramType" : "LIST", "mandatory" : false, "display": true},			
			{ "paramName" : "customTimePeriod", "paramType" : "DATE", "mandatory" : true }
		],
	"services" : 	
		[
		]	
}
