
{
	"params" : 
		[		
			{ "paramName" : "monitoringDate", "paramType" : "DATE", "mandatory" : true},
			{ "paramName" : "orgUnitId", "paramType" : "LIST", "mandatory" : false,"options": "SPL,SSL"}
			
			
		],
	"services" : 	
		[
			{ "serviceName" : "convertWorkEffortIdParametricToString"}
		]	
}
