
{
	"params" : 
		[
			{ "paramName" : "workEffortId", "paramType" : "LIST", "mandatory" : false, "display": false},			
			{ "paramName" : "customTimePeriod", "paramType" : "LIST", "mandatory" : true, "options": "FISCAL_YEAR" },
			{ "paramName" : "orgUnitId", "paramType" : "LIST", "mandatory" : false },
			{ "paramName" : "exposePaginator", "paramType" : "BOOLEAN", "mandatory" : false, "paramDefault" : true },
			{ "paramName" : "exposeReleaseDate", "paramType" : "BOOLEAN", "mandatory" : false, "paramDefault" : true }
		],
	"services" : 	
		[
		]	
}
