
{
	"params" : 
		[
			{ "paramName" : "workEffortId", "paramType" : "LIST", "mandatory" : false, "display": false},			
			{ "paramName" : "monitoringDate", "paramType" : "DATE", "mandatory" : true },
			{ "paramName" : "orgUnitId", "paramType" : "LIST", "mandatory" : false ,"options": "20DIR,30SET"},
			{ "paramName" : "personId", "paramType" : "LIST", "mandatory" : false },
			{ "paramName" : "politicianRoleTypeId", "paramType" : "LIST", "mandatory" : false },
			{ "paramName" : "workEffortTypeIdParametric", "paramType" : "LIST", "mandatory" : false },
			{ "paramName" : "workEffortIdParametric", "paramType" : "MULTILIST", "mandatory" : false },
			{ "paramName" : "workEffortTypeIdParametric2", "paramType" : "LIST", "mandatory" : false },
			{ "paramName" : "workEffortIdParametric2", "paramType" : "MULTILIST", "mandatory" : false },
			{ "paramName" : "workEffortTypeIdParametric3", "paramType" : "LIST", "mandatory" : false },
			{ "paramName" : "workEffortIdParametric3", "paramType" : "MULTILIST", "mandatory" : false },
			{ "paramName" : "assessors", "paramType" : "LIST", "mandatory" : false , "paramDefault": "NOT_CONTROLLED"},
			{ "paramName" : "codiceObpeg","paramType" : "INPUT", "mandatory" : false },
			{ "paramName" : "workEffortEtch","paramType" : "INPUT", "mandatory" : false },
			{ "paramName" : "workEffortName","paramType" : "INPUT", "mandatory" : false },
			{ "paramName" : "scoreActual","paramType" : "LIST", "mandatory" : false, "paramDefault": "SCOREACTUAL_ALL" },
			{ "paramName" : "Comment","paramType" : "TEXTAREA", "mandatory" : false },
			{ "paramName" : "workEffortRevision","paramType" : "LIST", "mandatory" : false },
			{ "paramName" : "exposeResult", "paramType" : "BOOLEAN", "mandatory" : false, "paramDefault" : false },
			{ "paramName" : "exposePerformedActivities", "paramType" : "BOOLEAN", "mandatory" : false, "paramDefault" : false },
			{ "paramName" : "exposeRespIndex", "paramType" : "BOOLEAN", "mandatory" : false, "paramDefault" : true },
			{ "paramName" : "exposePaginator", "paramType" : "BOOLEAN", "mandatory" : false, "paramDefault" : true },
			{ "paramName" : "exposeReleaseDate", "paramType" : "BOOLEAN", "mandatory" : false, "paramDefault" : true },
			{ "paramName" : "exposeDateSituationAt", "paramType" : "BOOLEAN", "mandatory" : false, "paramDefault" : true }
		],
	"services" : 	
		[
			{ "serviceName" : "convertWorkEffortIdParametricToString"}
		]	
}
