
{
	"params" : 
		[
			{ "paramName" : "workEffortId", "paramType" : "LIST", "mandatory" : true },
			{ "paramName" : "monitoringDate", "paramType" : "DATE", "mandatory" : true},
			{ "paramName" : "orgUnitId", "paramType" : "LIST", "mandatory" : false},
			{ "paramName" : "partyId", "paramType" : "LIST", "mandatory" : false },
			{ "paramName" : "exposePaginator", "paramType" : "BOOLEAN", "mandatory" : false, "paramDefault" : true },
			{ "paramName" : "exposeReleaseDate", "paramType" : "BOOLEAN", "mandatory" : false, "paramDefault" : true },
			{ "paramName" : "excludeValidity", "paramType" : "BOOLEAN", "mandatory" : false, "paramDefault" : false }
		],
	"services" : 	
		[
			
		]	
}
