
{
	"params" : 
		[
			{ "paramName" : "workEffortId", "paramType" : "LIST", "mandatory" : false, "display": false},			
			{ "paramName" : "customTimePeriod", "paramType" : "LIST", "mandatory" : true, "options": "FISCAL_YEAR" }
		],
	"services" : 	
		[
		]	
}
