
{
	"params" : 
		[
			{ "paramName" : "workEffortId", "paramType" : "LIST", "mandatory" : true },
			{ "paramName" : "workEffortIdChild", "paramType" : "LIST", "mandatory" : false },
			{ "paramName" : "orgUnitId", "paramType" : "LIST", "mandatory" : false},
			{ "paramName" : "monitoringDate", "paramType" : "DATE", "mandatory" : true },				
			{ "paramName" : "exposePaginator", "paramType" : "BOOLEAN", "mandatory" : false, "paramDefault" : true },
			{ "paramName" : "exposeReleaseDate", "paramType" : "BOOLEAN", "mandatory" : false, "paramDefault" : true }
		],
	"services" : 	
		[
		]	
}
