
{
	"params" : 
		[
			{ "paramName" : "workEffortId", "paramType" : "LIST", "mandatory" : false, "display": false},			
			{ "paramName" : "monitoringDate", "paramType" : "DATE", "mandatory" : true },
			{ "paramName" : "orgUnitId", "paramType" : "LIST", "mandatory" : false }
		],
	"services" : 	
		[
		]	
}
